<?xml version="1.0" encoding="UTF-8"?>
<svg width="14px" height="19px" viewBox="0 0 14 19" version="1.1" xmlns="http://www.w3.org/2000/svg" xmlns:xlink="http://www.w3.org/1999/xlink">
    <!-- Generator: Sketch 39.1 (31720) - http://www.bohemiancoding.com/sketch -->
    <title>mic</title>
    <desc>Created with Sketch.</desc>
    <defs></defs>
    <g id="Page-1" stroke="none" stroke-width="1" fill="none" fill-rule="evenodd" opacity="0.539999962">
        <g id="搜索" transform="translate(-324.000000, -106.000000)" fill="#000000">
            <g id="search" transform="translate(16.000000, 92.000000)">
                <g id="mic" transform="translate(303.000000, 12.000000)">
                    <path d="M14.99,11 L14.999,5 C14.999,3.342 13.657,2 12,2 C10.344,2 9,3.342 9,5 L9,11 C9,12.656 10.344,14 12,14 C13.657,14 14.99,12.656 14.99,11 Z M17.299,11 C17.299,14 14.762,16.1 12,16.1 C9.239,16.1 6.7,14 6.7,11 L5,11 C5,14.415 7.719,17.233 11,17.718 L11,21 L13,21 L13,17.718 C16.279,17.233 19,14.415 19,11 L17.299,11 L17.299,11 Z"></path>
                </g>
            </g>
        </g>
    </g>
</svg>