<?xml version="1.0" encoding="UTF-8"?>
<svg width="28px" height="28px" viewBox="0 0 28 28" version="1.1" xmlns="http://www.w3.org/2000/svg" xmlns:xlink="http://www.w3.org/1999/xlink">
    <!-- Generator: Sketch 39.1 (31720) - http://www.bohemiancoding.com/sketch -->
    <title>Combined-Shape</title>
    <desc>Created with Sketch.</desc>
    <defs></defs>
    <g id="Page-1" stroke="none" stroke-width="1" fill="none" fill-rule="evenodd" opacity="0.6">
        <g id="close" transform="translate(-659.000000, -600.000000)" fill="#FFFFFF">
            <g id="Page-1">
                <g id="Artboard">
                    <path d="M671.727922,614.142136 L665.99171,608.405924 C665.645014,608.059228 665.638966,607.50317 665.978201,607.163935 C666.317436,606.824699 666.873494,606.830748 667.22019,607.177444 L672.956402,612.913656 L678.891857,606.978201 C679.231092,606.638966 679.78715,606.645014 680.133846,606.99171 C680.480543,607.338407 680.486591,607.894465 680.147356,608.2337 L674.211901,614.169155 L680.417867,620.375121 C680.764563,620.721817 680.770612,621.277875 680.431376,621.61711 C680.092141,621.956345 679.536083,621.950297 679.189387,621.6036 L672.983421,615.397635 L667.2337,621.147356 L665.99171,621.133846 C665.645014,620.78715 665.638966,620.231092 665.978201,619.891857 L671.727922,614.142136 L671.727922,614.142136 Z M681.735978,600 L681.735978,601.792011 L685.207989,601.792011 L685.207989,605.264022 L687,605.264022 L687,600 L681.735978,600 L681.735978,600 Z M659,600 L659,605.264022 L660.792011,605.264022 L660.792011,601.792011 L664.264022,601.792011 L664.264022,600 L659,600 L659,600 Z M685.207989,622.735978 L685.207989,626.32 L681.735978,626.32 L681.735978,628 L687,628 L687,622.735978 L685.207989,622.735978 L685.207989,622.735978 Z M659,622.735978 L659,628 L664.264022,628 L664.264022,626.207989 L660.792011,626.207989 L660.792011,622.735978 L659,622.735978 L659,622.735978 Z" id="Combined-Shape"></path>
                </g>
            </g>
        </g>
    </g>
</svg>