<?xml version="1.0" encoding="UTF-8"?>
<svg width="28px" height="13px" viewBox="0 0 28 13" version="1.1" xmlns="http://www.w3.org/2000/svg" xmlns:xlink="http://www.w3.org/1999/xlink">
    <!-- Generator: Sketch 39.1 (31720) - http://www.bohemiancoding.com/sketch -->
    <title>Fill 59</title>
    <desc>Created with Sketch.</desc>
    <defs></defs>
    <g id="Page-1" stroke="none" stroke-width="1" fill="none" fill-rule="evenodd">
        <g id="实时画面-竖屏" transform="translate(-296.000000, -220.000000)" fill="#000000">
            <g id="Group-7" transform="translate(250.000000, 167.000000)">
                <path d="M59.7875153,57.5411328 C58.5459142,57.5411328 57.5367112,58.5508644 57.5367112,59.7923113 C57.5367112,61.0329536 58.5459142,62.0426852 59.7875153,62.0426852 C61.0275082,62.0426852 62.0367112,61.0329536 62.0367112,59.7923113 C62.0367112,58.5508644 61.0275082,57.5411328 59.7875153,57.5411328 L59.7875153,57.5411328 Z M69.9327896,69.389055 L64.5606429,55.6532189 C64.520525,55.5520898 64.4397683,55.471812 64.3392131,55.4321944 L50.5334579,50.0269995 C50.3880957,49.9696583 50.2218932,50.0056269 50.1119598,50.1161391 C50.0020264,50.2276939 49.9702447,50.3939835 50.029119,50.5389005 L55.4299213,63.7513674 C55.4684761,63.8451986 55.5429807,63.9207848 55.6362417,63.9614449 L69.443039,69.9671591 C69.4930561,69.989053 69.5461992,70 69.5993424,70 L69.6092416,70 C69.8249402,70 70,69.8248485 70,69.6090369 C70,69.5277166 69.9755125,69.4516091 69.9327896,69.389055 L69.9327896,69.389055 Z" id="Fill-59" transform="translate(60.000000, 60.000000) rotate(-45.000000) translate(-60.000000, -60.000000) "></path>
            </g>
        </g>
    </g>
</svg>