<?xml version="1.0" encoding="UTF-8"?>
<svg width="28px" height="28px" viewBox="0 0 28 28" version="1.1" xmlns="http://www.w3.org/2000/svg" xmlns:xlink="http://www.w3.org/1999/xlink">
    <!-- Generator: Sketch 39.1 (31720) - http://www.bohemiancoding.com/sketch -->
    <title>小窗口</title>
    <desc>Created with Sketch.</desc>
    <defs></defs>
    <g id="Page-1" stroke="none" stroke-width="1" fill="none" fill-rule="evenodd" fill-opacity="0.6">
        <g id="实时画面-全屏" transform="translate(-5.000000, -85.000000)" fill="#FFFFFF">
            <g id="小窗口" transform="translate(5.000000, 85.000000)">
                <polygon id="Fill-1" points="0 27.9940624 23.7927853 27.9940624 23.7927853 3.80555509 0 3.80555509"></polygon>
                <polygon id="Fill-2" points="4.19582577 5.82120583e-06 4.19582577 2.86042994 25.174926 2.86042994 25.174926 24.1884549 27.988611 24.1884549 27.988611 5.82120583e-06"></polygon>
            </g>
        </g>
    </g>
</svg>