<?xml version="1.0" encoding="UTF-8"?>
<svg width="28px" height="28px" viewBox="0 0 28 28" version="1.1" xmlns="http://www.w3.org/2000/svg" xmlns:xlink="http://www.w3.org/1999/xlink">
    <!-- Generator: Sketch 39.1 (31720) - http://www.bohemiancoding.com/sketch -->
    <title>全屏</title>
    <desc>Created with Sketch.</desc>
    <defs></defs>
    <g id="Page-1" stroke="none" stroke-width="1" fill="none" fill-rule="evenodd" opacity="0.6">
        <g id="实时画面-竖屏" transform="translate(-7.000000, -220.000000)" fill="#FFFFFF">
            <g id="Group-2" transform="translate(0.000000, 215.000000)">
                <path d="M29.7359778,5 L29.7359778,6.79201111 L33.2079889,6.79201111 L33.2079889,10.2640222 L35,10.2640222 L35,5 L29.7359778,5 Z M7,5 L7,10.2640222 L8.79201111,10.2640222 L8.79201111,6.79201111 L12.2640222,6.79201111 L12.2640222,5 L7,5 Z M12.2640222,26.0559778 L29.7359778,26.0559778 L29.7359778,12.0559223 L12.2640222,12.0559223 L12.2640222,26.0559778 Z M33.2079889,27.7359778 L33.2079889,31.32 L29.7359778,31.32 L29.7359778,33 L35,33 L35,27.7359778 L33.2079889,27.7359778 Z M7,27.7359778 L7,33 L12.2640222,33 L12.2640222,31.2079889 L8.79201111,31.2079889 L8.79201111,27.7359778 L7,27.7359778 Z" id="全屏"></path>
            </g>
        </g>
    </g>
</svg>