<?xml version="1.0" encoding="UTF-8"?>
<svg width="19px" height="19px" viewBox="0 0 19 19" version="1.1" xmlns="http://www.w3.org/2000/svg" xmlns:xlink="http://www.w3.org/1999/xlink">
    <!-- Generator: Sketch 39.1 (31720) - http://www.bohemiancoding.com/sketch -->
    <title>枪机摄像头 copy</title>
    <desc>Created with Sketch.</desc>
    <defs>
        <ellipse id="path-1" cx="9.33333333" cy="9.33333333" rx="9.33333333" ry="9.33333333"></ellipse>
    </defs>
    <g id="Page-1" stroke="none" stroke-width="1" fill="none" fill-rule="evenodd">
        <g id="Artboard" transform="translate(-136.000000, -309.000000)">
            <g id="枪机摄像头-copy" transform="translate(136.000000, 309.000000)">
                <mask id="mask-2" fill="white">
                    <use xlink:href="#path-1"></use>
                </mask>
                <use id="Mask" fill="#FF5E05" xlink:href="#path-1"></use>
                <g id="Group" mask="url(#mask-2)">
                    <g transform="translate(9.092593, 9.592593) rotate(-180.000000) translate(-9.092593, -9.592593) translate(1.592593, 1.592593)" id="Combined-Shape">
                        <circle fill="#FFFFFF" cx="7.25925926" cy="8.25925926" r="7.25925926"></circle>
                        <path d="M5.19301623,10.6211962 L5.75043024,11.6267977 C6.01878459,12.1109218 6.62470897,12.2818182 7.10708558,12.0144325 L12.4832494,9.03437618 C12.9737059,8.76251171 13.1403178,8.15992256 12.8734343,7.67845208 L10.5649204,3.51378273 C10.296566,3.02965867 9.69064167,2.85876227 9.20826506,3.12614799 L3.83210122,6.10620427 C3.34164474,6.37806874 3.17503288,6.98065789 3.44191632,7.46212836 L4.02993767,8.52294695 L3.20168138,8.98205691 L3.00616931,8.6293438 C2.85447107,8.35567293 2.53243841,8.27027925 2.27322619,8.41396293 C2.02159482,8.55344448 1.92189776,8.88703317 2.06747886,9.14966842 L3.62158155,11.9533439 C3.77327979,12.2270148 4.09531246,12.3124084 4.35452467,12.1687248 C4.60615605,12.0292432 4.7058531,11.6956545 4.56027201,11.4330193 L4.36475994,11.0803062 L5.19301623,10.6211962 Z M11.4293415,8.82144894 C11.7980735,8.61705746 11.9312978,8.1524491 11.7269063,7.78371711 C11.5225149,7.41498513 11.0579065,7.28176082 10.6891745,7.4861523 C10.3204425,7.69054378 10.1872182,8.15515214 10.3916097,8.52388413 C10.5960012,8.89261611 11.0606095,9.02584042 11.4293415,8.82144894 Z" fill="#FF5E05" transform="translate(7.500033, 7.618815) rotate(-330.000000) translate(-7.500033, -7.618815) "></path>
                    </g>
                </g>
            </g>
        </g>
    </g>
</svg>