<?xml version="1.0" encoding="UTF-8"?>
<svg width="24px" height="23px" viewBox="0 0 24 23" version="1.1" xmlns="http://www.w3.org/2000/svg" xmlns:xlink="http://www.w3.org/1999/xlink">
    <!-- Generator: Sketch 39.1 (31720) - http://www.bohemiancoding.com/sketch -->
    <title>Star</title>
    <desc>Created with Sketch.</desc>
    <defs></defs>
    <g id="Page-1" stroke="none" stroke-width="1" fill="none" fill-rule="evenodd">
        <g id="首页-点击更多" transform="translate(-273.000000, -539.000000)" fill="#000000">
            <g id="Group-3" transform="translate(0.000000, 507.000000)">
                <g id="Group-2">
                    <g id="收藏" transform="translate(261.000000, 19.000000)">
                        <polygon id="Star" points="24.0024412 31.9301704 16.5845246 35.8299999 18.0012206 27.5700284 12 21.720284 20.2934829 20.5151704 24.0024412 13 27.7113996 20.5151704 36.0048825 21.720284 30.0036619 27.5700284 31.4203579 35.8299999"></polygon>
                    </g>
                </g>
            </g>
        </g>
    </g>
</svg>