<?xml version="1.0" encoding="UTF-8"?>
<svg width="24px" height="40px" viewBox="0 0 24 40" version="1.1" xmlns="http://www.w3.org/2000/svg" xmlns:xlink="http://www.w3.org/1999/xlink">
    <!-- Generator: Sketch 39.1 (31720) - http://www.bohemiancoding.com/sketch -->
    <title>Fill 14 Copy 3</title>
    <desc>Created with Sketch.</desc>
    <defs></defs>
    <g id="Page-1" stroke="none" stroke-width="1" fill="none" fill-rule="evenodd">
        <g id="首页-当前位置无摄像头" transform="translate(-166.000000, -253.000000)" fill="#5FAF03">
            <g id="Inception" transform="translate(-507.000000, 79.000000)">
                <path d="M683.787588,182.048055 C682.167537,182.437904 680.80812,183.983481 680.671398,185.792161 C680.501262,187.476198 681.415151,189.185163 682.814666,189.928518 C684.331689,190.794113 686.323757,190.528908 687.590727,189.27797 C688.773882,188.149272 689.204652,186.20003 688.586761,184.622616 C687.855538,182.648746 685.684981,181.524553 683.787588,182.048055 M684.054348,174 L685.424347,174 C688.839041,174.210842 692.177717,176.010212 694.247473,178.970116 C695.602992,180.840066 696.359276,183.160835 696.529412,185.517946 L696.529412,186.392852 C696.449774,190.962006 693.739014,194.71272 691.391917,198.266707 C688.756897,202.282625 686.321807,206.659258 685.647111,211.60895 C685.466394,212.447515 685.683032,213.621565 684.754106,214 C684.535518,213.816489 684.281289,213.664815 684.12786,213.40862 C683.852747,210.641237 683.211743,207.908094 682.117137,205.380988 C680.875227,202.436702 679.146021,199.775942 677.389249,197.171948 C676.319703,195.610452 675.311139,193.994293 674.476888,192.271813 C673.165921,189.690344 672.678347,186.639736 673.214094,183.743205 C673.653218,181.456375 674.762861,179.337438 676.298819,177.698754 C678.368575,175.516144 681.167327,174.194924 684.054348,174" id="Fill-14-Copy-3"></path>
            </g>
        </g>
    </g>
</svg>