<?xml version="1.0" encoding="UTF-8"?>
<svg width="14px" height="14px" viewBox="0 0 14 14" version="1.1" xmlns="http://www.w3.org/2000/svg" xmlns:xlink="http://www.w3.org/1999/xlink">
    <!-- Generator: Sketch 39.1 (31720) - http://www.bohemiancoding.com/sketch -->
    <title>Combined Shape</title>
    <desc>Created with Sketch.</desc>
    <defs></defs>
    <g id="Page-1" stroke="none" stroke-width="1" fill="none" fill-rule="evenodd">
        <g id="实时画面-全屏" transform="translate(-634.000000, -110.000000)" fill="#4A4A4A">
            <g id="放大缩小" transform="translate(625.000000, 100.000000)">
                <path d="M16,16 L22,16 C22.2761424,16 22.5,16.2238576 22.5,16.5 C22.5,16.7761424 22.2761424,17 22,17 L16,17 L16,23 C16,23.2761424 15.7761424,23.5 15.5,23.5 C15.2238576,23.5 15,23.2761424 15,23 L15,17 L9.5,17 C9.22385763,17 9,16.7761424 9,16.5 C9,16.2238576 9.22385763,16 9.5,16 L15,16 L15,10.5 C15,10.2238576 15.2238576,10 15.5,10 C15.7761424,10 16,10.2238576 16,10.5 L16,16 Z" id="Combined-Shape"></path>
            </g>
        </g>
    </g>
</svg>